<svg xmlns="http://www.w3.org/2000/svg" xmlns:xlink="http://www.w3.org/1999/xlink" width="235" height="230" viewBox="0 0 176.24999 172.5">
    <defs>
        <symbol id="a" overflow="visible">
            <path d="M9.8125-8.39063L7.875-12.90625c.26563-.5.89063-.57813 1.125-.60938.125 0 .35938-.01563.35938-.35937 0-.23438-.1875-.23438-.3125-.23438-.34375 0-.76563.04687-1.10938.04687H6.73437c-1.26562 0-2.17187-.04687-2.1875-.04687-.17187 0-.375 0-.375.39063 0 .20313.1875.20313.45313.20313 1.20313 0 1.28125.21875 1.48438.70312l2.46875 5.75-4.48438 4.79688c-.75.79687-1.64063 1.57812-3.17188 1.67187-.23437.01563-.40624.01563-.40624.39063 0 .0625.01562.20312.25.20312.28124 0 .59374-.04688.89062-.04688H2.625C3.28125-.04688 4 0 4.64063 0c.15625 0 .40625 0 .40625-.375 0-.20313-.15625-.21875-.28125-.21875-.40625-.04688-.67188-.28125-.67188-.60938 0-.34374.25-.59374.84375-1.21874l1.84375-2c.45313-.46875 1.54688-1.67188 2-2.125l2.17188 5.07812c.01563.04688.09375.25.09375.26563 0 .1875-.45313.5625-1.10938.60937-.125 0-.35938.01563-.35938.39063C9.57813 0 9.79688 0 9.89063 0c.35938 0 .76563-.04688 1.125-.04688h2.26563c.375 0 .76563.04688 1.10938.04688.15625 0 .375 0 .375-.39063 0-.20312-.20313-.20312-.39063-.20312-1.23438-.03125-1.28125-.125-1.625-.89063l-2.73438-6.40625 2.625-2.8125c.20313-.20312.6875-.71875.875-.92187.875-.9375 1.70313-1.78125 3.375-1.89063.21876-.01563.42188-.01563.42188-.35937 0-.23438-.1875-.23438-.26563-.23438-.29687 0-.60937.04687-.89062.04687h-.95313c-.65625 0-1.39062-.04687-2.03125-.04687-.14062 0-.39062 0-.39062.375 0 .20313.15625.21875.28125.21875.32813.04687.67188.21875.67188.60938l-.01563.03125c-.03125.15625-.0625.35938-.29688.60938zm0 0"/>
        </symbol>
        <symbol id="b" overflow="visible">
            <path d="M12.14063-11.8125l.48437-.48438c.90625-.92187 1.67188-1.15625 2.39063-1.21875.23437-.01563.42187-.03125.42187-.39062 0-.20313-.21875-.20313-.25-.20313-.25 0-.51563.04687-.76563.04687h-.84375c-.60937 0-1.25-.04687-1.82812-.04687-.14063 0-.375 0-.375.39063 0 .1875.21875.20313.28125.20313.60938.04687.60938.35937.60938.48437 0 .21875-.15625.53125-.57813 1.01563L6.78125-6.375 4.4375-12.65625c-.125-.29688-.125-.34375-.125-.375 0-.4375.85938-.48438 1.09375-.48438.25 0 .48438 0 .48438-.35937 0-.23438-.1875-.23438-.3125-.23438-.35938 0-.76563.04687-1.10938.04687H2.17187c-.375 0-.76562-.04687-1.125-.04687-.14062 0-.35937 0-.35937.39063 0 .20313.1875.20313.48438.20313 1.01562 0 1.20312.1875 1.39062.67187l2.5625 6.875c.01563.0625.07813.28125.07813.34375S4.1875-1.48437 4.125-1.28125c-.15625.5625-.35938.65625-1.6875.6875-.34375 0-.51563 0-.51563.39063C1.92188 0 2.14064 0 2.20314 0c.375 0 .8125-.04688 1.20312-.04688h2.4375c.375 0 .8125.04688 1.17188.04688.15625 0 .40625 0 .40625-.375 0-.21875-.15625-.21875-.5-.21875-1.28125 0-1.28125-.15625-1.28125-.375 0-.14063.15625-.8125.26562-1.21875l.75-2.98438c.125-.42187.125-.46875.3125-.67187zm0 0"/>
        </symbol>
        <symbol id="c" overflow="visible">
            <path d="M14.45313-13.46875c.125-.14063.23437-.26563.23437-.46875 0-.15625-.01563-.17188-.5-.17188H5.65625c-.46875 0-.48438.01563-.60938.39063L3.90625-10c-.0625.20313-.0625.25-.0625.29688 0 .07812.0625.20312.20313.20312.17187 0 .20312-.07813.29687-.35938.76563-2.21875 1.76563-3.65625 5.03125-3.65625h3.39063L1.45313-.70313c-.1875.23438-.28126.3125-.28126.53126 0 .17187.10938.17187.5.17187H10.5c.46875 0 .48438-.01563.60938-.39063l1.45312-4.5625c.01563-.0625.0625-.21875.0625-.29687 0-.09375-.09375-.20313-.20313-.20313-.17187 0-.1875.01563-.35937.53125C11.20312-2.25 10.28125-.64063 6.6875-.64063H3.125zm0 0"/>
        </symbol>
        <symbol id="d" overflow="visible">
            <path d="M6.39063-5.76563c.29687 0 .40625 0 .40625-.26562 0-.15625-.10938-.15625-.375-.15625H5.26563c.26562-1.46875.46875-2.48438.59375-2.95313.07812-.34375.375-.67187.75-.67187.29687 0 .60937.125.75.26563-.5625.04687-.73438.46875-.73438.71875 0 .28125.21875.45312.48438.45312.29687 0 .71875-.25.71875-.79688 0-.59375-.59375-.92187-1.23438-.92187-.60938 0-1.21875.45313-1.5 1.01563-.26563.5-.40625 1.01562-.73438 2.89062h-.95312c-.28125 0-.42188 0-.42188.26563 0 .15625.07813.15625.375.15625h.92188C4.01562-4.4375 3.42187-1.1875 3.09375.34375c-.23438 1.25-.45313 2.29688-1.17188 2.29688-.04687 0-.45312 0-.71874-.28125.73437-.04688.73437-.6875.73437-.70313 0-.28125-.21875-.45313-.48438-.45313-.29687 0-.71874.25-.71874.79688 0 .60938.625.92188 1.1875.92188 1.46874 0 2.0625-2.625 2.21875-3.34375.26562-1.09376.96875-4.90625 1.03125-5.34375zm0 0"/>
        </symbol>
        <symbol id="e" overflow="visible">
            <path d="M4.84375-1.82813c-.04688.23438-.07813.29688-.26563.51563-.59375.75-1.1875 1.03125-1.64062 1.03125-.46875 0-.92188-.375-.92188-1.375 0-.75.4375-2.35938.75-3 .42188-.8125 1.0625-1.375 1.67188-1.375.9375 0 1.125 1.17188 1.125 1.25l-.04688.20313zM5.73438-5.375c-.1875-.42188-.57813-.95313-1.29688-.95313-1.5625 0-3.34375 1.96875-3.34375 4.10938C1.09375-.73437 2 0 2.90625 0c.76563 0 1.4375-.60938 1.70313-.89063L4.28125.40626C4.09375 1.1875 4 1.54688 3.48437 2.04688c-.59375.59375-1.125.59375-1.45312.59375-.42188 0-.78125-.03125-1.14063-.14063.45313-.14063.57813-.53125.57813-.6875 0-.23438-.17188-.46875-.5-.46875-.34375 0-.70313.29688-.70313.76563 0 .59375.57813.8125 1.79688.8125 1.85938 0 2.8125-1.1875 3-1.95313l1.59375-6.4375c.04688-.17188.04688-.20313.04688-.21875 0-.20313-.15625-.35938-.375-.35938-.34375 0-.54688.28125-.59375.67188zm0 0"/>
        </symbol>
        <symbol id="f" overflow="visible">
            <path d="M6.375-3.57813C6.375-5.125 5.09375-6.375 3.57812-6.375 2.03125-6.375.78125-5.09375.78125-3.57812c0 1.51562 1.25 2.78125 2.79688 2.78125 1.51562 0 2.79687-1.25 2.79687-2.78125zM3.57812-1.375c-1.23437 0-2.21875-1-2.21875-2.20313 0-1.21875 1-2.21875 2.21875-2.21875 1.20313 0 2.21875.98438 2.21875 2.21875 0 1.21875-1.01562 2.20313-2.21875 2.20313zm0 0"/>
        </symbol>
    </defs>
    <path fill="#fff" d="M0 0h176.24999v172.5H0z"/>
    <g transform="translate(9.54338 14.50444)">
        <use width="100%" height="100%" x="8.903" y="28.614" transform="matrix(1.5 0 0 1.5 -14.12795 -8.86838)" xlink:href="#a"/>
        <use width="100%" height="100%" x="94.72" y="28.614" transform="matrix(1.5 0 0 1.5 -14.12795 -8.86838)" xlink:href="#b"/>
        <use width="100%" height="100%" x="95.171" y="101.573" transform="matrix(1.5 0 0 1.5 -14.12795 -8.86838)" xlink:href="#c"/>
        <path fill="none" stroke="#000" stroke-miterlimit="10" stroke-width=".59772" d="M40.5109 26.30535h73.18946"/>
        <path fill="none" stroke="#000" stroke-linecap="round" stroke-linejoin="round" stroke-miterlimit="10" stroke-width=".59772" d="M110.88777 22.71362c.56835 2.15625 1.83399 3.16992 3.11133 3.5918-1.27735.41601-2.54297 1.42968-3.11135 3.58593"/>
        <use width="100%" height="100%" x="56.793" y="16.006" transform="matrix(1.5 0 0 1.5 -14.12795 -8.86838)" xlink:href="#d"/>
        <path fill="none" stroke="#000" stroke-miterlimit="10" stroke-width=".59772" d="M35.55387 45.70574l78.9668 68.0039"/>
        <path fill="none" stroke="#000" stroke-linecap="round" stroke-linejoin="round" stroke-miterlimit="10" stroke-width=".59806" d="M114.73151 109.15102c-.97264 2.0039-.67968 3.60353.0176 4.75195-1.24221-.51561-2.86526-.5742-4.69925.69142"/>
        <use width="100%" height="100%" x="32.073" y="73.795" transform="matrix(1.5 0 0 1.5 -14.12795 -8.86838)" xlink:href="#e"/>
        <use width="100%" height="100%" x="39.314" y="73.795" transform="matrix(1.5 0 0 1.5 -14.12795 -8.86838)" xlink:href="#f"/>
        <use width="100%" height="100%" x="46.487" y="73.795" transform="matrix(1.5 0 0 1.5 -14.12795 -8.86838)" xlink:href="#d"/>
        <path fill="none" stroke="#000" stroke-miterlimit="10" stroke-width=".59772" d="M140.13199 45.70574v64.35352"/>
        <path fill="none" stroke="#000" stroke-linecap="round" stroke-linejoin="round" stroke-miterlimit="10" stroke-width=".59772" d="M143.71786 107.25257c-2.1504.56835-3.16992 1.83399-3.58594 3.10546-.42188-1.27147-1.43555-2.5371-3.58594-3.10545"/>
        <use width="100%" height="100%" x="107.491" y="59.727" transform="matrix(1.5 0 0 1.5 -14.12795 -8.86838)" xlink:href="#e"/>
    </g>
</svg>
